{
  "name": "Naba",
  "short_name": "Naba",
  "description": "THE PERSON TO HOLD, TO CARVE, TO RETURN THESE IMAGES TO YOU WHEN YOUR MIND CAN'T SEEM TO RECOLLECT THE ATOMS OF THOSE MOMENTS.",
  "icons": [
    {
      "src": "../_nuxt/icons/icon_64x64.01fe1d.png",
      "sizes": "64x64",
      "type": "image/png",
      "purpose": "any maskable"
    },
    {
      "src": "../_nuxt/icons/icon_120x120.01fe1d.png",
      "sizes": "120x120",
      "type": "image/png",
      "purpose": "any maskable"
    },
    {
      "src": "../_nuxt/icons/icon_144x144.01fe1d.png",
      "sizes": "144x144",
      "type": "image/png",
      "purpose": "any maskable"
    },
    {
      "src": "../_nuxt/icons/icon_152x152.01fe1d.png",
      "sizes": "152x152",
      "type": "image/png",
      "purpose": "any maskable"
    },
    {
      "src": "../_nuxt/icons/icon_192x192.01fe1d.png",
      "sizes": "192x192",
      "type": "image/png",
      "purpose": "any maskable"
    },
    {
      "src": "../_nuxt/icons/icon_384x384.01fe1d.png",
      "sizes": "384x384",
      "type": "image/png",
      "purpose": "any maskable"
    },
    {
      "src": "../_nuxt/icons/icon_512x512.01fe1d.png",
      "sizes": "512x512",
      "type": "image/png",
      "purpose": "any maskable"
    }
  ],
  "start_url": "/?standalone=true",
  "display": "standalone",
  "background_color": "#ffffff",
  "theme_color": "#000000",
  "lang": "en"
}